<?xml version="1.0" encoding="UTF-8" standalone="no"?>
<!-- Created with Inkscape (http://www.inkscape.org/) -->

<svg
   width="198.5029mm"
   height="240.88126mm"
   viewBox="0 0 198.5029 240.88126"
   version="1.1"
   id="svg8"
   inkscape:export-filename="./path/to/flag.svg"
   inkscape:export-xdpi="132.299"
   inkscape:export-ydpi="132.299"
   inkscape:version="1.2.2 (b0a8486, 2022-12-01)"
   sodipodi:docname="flag.svg"
   xmlns:inkscape="http://www.inkscape.org/namespaces/inkscape"
   xmlns:sodipodi="http://sodipodi.sourceforge.net/DTD/sodipodi-0.dtd"
   xmlns="http://www.w3.org/2000/svg"
   xmlns:svg="http://www.w3.org/2000/svg"
   xmlns:rdf="http://www.w3.org/1999/02/22-rdf-syntax-ns#"
   xmlns:cc="http://creativecommons.org/ns#"
   xmlns:dc="http://purl.org/dc/elements/1.1/">
  <defs
     id="defs2" />
  <sodipodi:namedview
     id="base"
     pagecolor="#ffffff"
     bordercolor="#666666"
     borderopacity="1.0"
     inkscape:pageopacity="1"
     inkscape:pageshadow="2"
     inkscape:zoom="0.80890039"
     inkscape:cx="-50.686093"
     inkscape:cy="486.46286"
     inkscape:document-units="mm"
     inkscape:current-layer="layer1"
     showgrid="false"
     inkscape:pagecheckerboard="false"
     inkscape:window-width="1920"
     inkscape:window-height="1029"
     inkscape:window-x="0"
     inkscape:window-y="0"
     inkscape:window-maximized="1"
     inkscape:showpageshadow="2"
     inkscape:deskcolor="#d1d1d1" />
  <metadata
     id="metadata5">
    <rdf:RDF>
      <cc:Work
         rdf:about="">
        <dc:format>image/svg+xml</dc:format>
        <dc:type
           rdf:resource="http://purl.org/dc/dcmitype/StillImage" />
      </cc:Work>
    </rdf:RDF>
  </metadata>
  <g
     inkscape:groupmode="layer"
     id="layer1"
     inkscape:label="Layer 1"
     style="display:inline">
    <rect
       style="fill:none;stroke:#ff0000;stroke-width:1.5;stroke-linejoin:round;stroke-dasharray:none;stroke-opacity:1"
       id="rect0"
       width="73.705597"
       height="16.373394"
       x="6.5018034"
       y="7.8293853" />
    <rect
       style="fill:none;stroke:none;stroke-width:1.35674;stroke-linejoin:round;stroke-dasharray:none;stroke-opacity:1"
       id="rect1"
       width="9.0410147"
       height="11.870502"
       x="16.49349"
       y="28.237076"
       ry="0" />
    <rect
       style="fill:none;stroke:#ff0000;stroke-width:1.35674;stroke-linejoin:round;stroke-dasharray:none;stroke-opacity:1"
       id="rect2"
       width="9.0410147"
       height="11.870502"
       x="127.63426"
       y="28.693857"
       ry="0" />
    <rect
       style="fill:none;stroke:#ff0000;stroke-width:1.35674;stroke-linejoin:round;stroke-dasharray:none;stroke-opacity:1"
       id="rect7"
       width="9.0410147"
       height="11.870502"
       x="146.52489"
       y="85.787064"
       ry="0" />
    <rect
       style="fill:none;stroke:#ff0000;stroke-width:1.35674;stroke-linejoin:round;stroke-dasharray:none;stroke-opacity:1"
       id="rect11"
       width="9.0410147"
       height="11.870502"
       x="127.86623"
       y="162.9494"
       ry="0" />
    <rect
       style="fill:none;stroke:#ff0000;stroke-width:1.35674;stroke-linejoin:round;stroke-dasharray:none;stroke-opacity:1"
       id="rect3"
       width="9.0410147"
       height="11.870502"
       x="109.04121"
       y="202.19397"
       ry="0" />
    <rect
       style="fill:none;stroke:#ff0000;stroke-width:1.35674;stroke-linejoin:round;stroke-dasharray:none;stroke-opacity:1"
       id="rect3-3"
       width="9.0410147"
       height="11.870502"
       x="16.754425"
       y="221.28889"
       ry="0" />
    <rect
       style="fill:none;stroke:#ff0000;stroke-width:1.35674;stroke-linejoin:round;stroke-dasharray:none;stroke-opacity:1"
       id="rect3-6"
       width="9.0410147"
       height="11.870502"
       x="136.88579"
       y="220.599"
       ry="0" />
    <rect
       style="fill:none;stroke:#ff0000;stroke-width:1.35674;stroke-linejoin:round;stroke-dasharray:none;stroke-opacity:1"
       id="rect3-6-7"
       width="9.0410147"
       height="11.870502"
       x="26.696459"
       y="86.067101"
       ry="0" />
    <rect
       style="fill:none;stroke:#ff0000;stroke-width:1.35674;stroke-linejoin:round;stroke-dasharray:none;stroke-opacity:1"
       id="rect3-6-5"
       width="9.0410147"
       height="11.870502"
       x="81.144806"
       y="66.782738"
       ry="0" />
    <rect
       style="fill:none;stroke:#ff0000;stroke-width:1.35674;stroke-linejoin:round;stroke-dasharray:none;stroke-opacity:1"
       id="rect3-6-3"
       width="9.0410147"
       height="11.870502"
       x="82.006218"
       y="124.31539"
       ry="0" />
    <rect
       style="fill:none;stroke:#ff0000;stroke-width:1.35674;stroke-linejoin:round;stroke-dasharray:none;stroke-opacity:1"
       id="rect8"
       width="9.0410147"
       height="11.870502"
       x="53.880112"
       y="143.88995"
       ry="0" />
    <rect
       style="fill:none;stroke:#ff0000;stroke-width:1.35674;stroke-linejoin:round;stroke-dasharray:none;stroke-opacity:1"
       id="rect4"
       width="9.0410147"
       height="11.870502"
       x="164.59488"
       y="182.14909"
       ry="0" />
    <rect
       style="fill:none;stroke:#ff0000;stroke-width:1.35674;stroke-linejoin:round;stroke-dasharray:none;stroke-opacity:1"
       id="rect6"
       width="9.0410147"
       height="11.870502"
       x="174.52245"
       y="47.311855"
       ry="0" />
    <g
       id="g2411"
       transform="translate(-46.330728,-19.021068)">
      <rect
         style="fill:none;stroke:#ff0000;stroke-width:1.35674;stroke-linejoin:round;stroke-dasharray:none;stroke-opacity:1"
         id="rect5"
         width="9.0410147"
         height="11.870502"
         x="173.76637"
         y="124.22186"
         ry="0" />
      <rect
         style="fill:none;stroke:#ff0000;stroke-width:1.35674;stroke-linejoin:round;stroke-dasharray:none;stroke-opacity:1"
         id="rect12"
         width="9.0410147"
         height="11.870502"
         x="81.20298"
         y="183.0244"
         ry="0" />
      <rect
         style="fill:none;stroke:#ff0000;stroke-width:1.35674;stroke-linejoin:round;stroke-dasharray:none;stroke-opacity:1"
         id="rect9"
         width="9.0410147"
         height="11.870502"
         x="53.778179"
         y="85.588791"
         ry="0" />
      <rect
         style="fill:none;stroke:#ff0000;stroke-width:1.35674;stroke-linejoin:round;stroke-dasharray:none;stroke-opacity:1"
         id="rect13"
         width="9.0410147"
         height="11.870502"
         x="155.89528"
         y="66.477913"
         ry="0" />
    </g>
    <rect
       style="fill:none;stroke:#ff0000;stroke-width:1.35674;stroke-linejoin:round;stroke-dasharray:none;stroke-opacity:1"
       id="rect14"
       width="9.0410147"
       height="11.870502"
       x="183.23433"
       y="221.19748"
       ry="0" />
    <rect
       style="fill:none;stroke:#ff0000;stroke-width:1.35674;stroke-linejoin:round;stroke-dasharray:none;stroke-opacity:1"
       id="rect10"
       width="9.0410147"
       height="11.870502"
       x="164.59488"
       y="182.14909"
       ry="0" />
  </g>
</svg>
